…
Data

The unvotes package provides three datasets we can work with: un_roll_calls,
un_roll_call_issues, and un_votes. Each of these datasets contains a
variable called rcid, the roll call id, which can be used as a unique
identifier to join them with each other.

The un_votes dataset provides information on the voting history of the
United Nations General Assembly. It contains one row for each country-vote pair.

un_votes

## # A tibble: 869,937 x 4
##     rcid country            country_code vote 
##    <dbl> <chr>              <chr>        <fct>
##  1     3 United States      US           yes  
##  2     3 Canada             CA           no   
##  3     3 Cuba               CU           yes  
##  4     3 Haiti              HT           yes  
##  5     3 Dominican Republic DO           yes  
##  6     3 Mexico             MX           yes  
##  7     3 Guatemala          GT           yes  
##  8     3 Honduras           HN           yes  
##  9     3 El Salvador        SV           yes  
## 10     3 Nicaragua          NI           yes  
## # ... with 869,927 more rows

The un_roll_calls dataset contains information on each roll call vote of
the United Nations General Assembly.

un_roll_calls

## # A tibble: 6,202 x 9
##     rcid session importantvote date       unres   amend  para short    descr    
##    <int>   <dbl>         <int> <date>     <chr>   <int> <int> <chr>    <chr>    
##  1     3       1             0 1946-01-01 R/1/66      1     0 AMENDME~ "TO ADOP~
##  2     4       1             0 1946-01-02 R/1/79      0     0 SECURIT~ "TO ADOP~
##  3     5       1             0 1946-01-04 R/1/98      0     0 VOTING ~ "TO ADOP~
##  4     6       1             0 1946-01-04 R/1/107     0     0 DECLARA~ "TO ADOP~
##  5     7       1             0 1946-01-02 R/1/295     1     0 GENERAL~ "TO ADOP~
##  6     8       1             0 1946-01-05 R/1/297     1     0 ECOSOC ~ "TO ADOP~
##  7     9       1             0 1946-02-05 R/1/329     0     0 POST-WA~ "TO OPEN~
##  8    10       1             0 1946-02-05 R/1/361     1     1 U.N. ME~ "TO ADOP~
##  9    11       1             0 1946-02-05 R/1/376     0     0 TRUSTEE~ "TO ADOP~
## 10    12       1             0 1946-02-06 R/1/394     1     1 COUNCIL~ "TO ADOP~
## # ... with 6,192 more rows

The un_roll_call_issues dataset contains (topic) classifications of roll
call votes of the United Nations General Assembly. Many votes had no topic,
and some have more than one. In our dataset, there are six topics and

un_roll_call_issues

## # A tibble: 5,745 x 3
##     rcid short_name issue               
##    <int> <chr>      <fct>               
##  1    77 me         Palestinian conflict
##  2  9001 me         Palestinian conflict
##  3  9002 me         Palestinian conflict
##  4  9003 me         Palestinian conflict
##  5  9004 me         Palestinian conflict
##  6  9005 me         Palestinian conflict
##  7  9006 me         Palestinian conflict
##  8   128 me         Palestinian conflict
##  9   129 me         Palestinian conflict
## 10   130 me         Palestinian conflict
## # ... with 5,735 more rows
…
